{
    "questions": [
        {
            "id": 1,
            "question": "Inside which HTML element do we put the JavaScript?",
            "others":"",
            "options": [
                {
                    "id": 1,
                    "title": "<script>"
                },
                {
                    "id": 2,
                    "title": "<javascript>"
                },
                {
                    "id": 3,
                    "title": "<js>"
                },
                {
                    "id": 4,
                    "title": "<jscript>"
                }
            ]
        },
        {
            "id": 2,
            "question": "What is the correct JavaScript syntax to change the content of the HTML element below?",
            "otherInfo":"<p id='demo'>This is a demonstration.</p>",
            "options": [
                {
                    "id": 1,
                    "title": " document.getElementById('demo').innerHTML = 'hello word' "
                },
                {
                    "id": 2,
                    "title": "document.getElementById('demo').innerHTML = 'hello word'"
                },
                {
                    "id": 3,
                    "title": "document.getElementById('demo').innerHTML = 'hello word'"
                },
                {
                    "id": 4,
                    "title": "document.getElementById('demo').innerHTML = 'hello word'"
                }
            ]
        },
        {
            "id": 3,
            "question": "Where is the correct place to insert a JavaScript?",
            "otherInfo":"<p id='demo'>This is a demonstration.</p>",
            "options": [
                {
                    "id": 1,
                    "title": " The <head> section "
                },
                {
                    "id": 2,
                    "title": " Both the <head> section and the <body> section are correct"
                },
                {
                    "id": 3,
                    "title": " The <body> section"
                },
                {
                    "id": 4,
                    "title": "Both the <head> section and the <body> section are correct"
                }
            ]
        }
    ],
    "comments": [
        {
            "id": 1,
            "body": "some comment",
            "postId": 1
        }
    ],
    "profile": {
        "name": "typicode12"
    }
}